Stat468 Final Project - 4 Tidy
…
Code

tidy_draft <- function(year){
  draft_year_table <- import_draft(year) |> 
    filter(overall != "Overall" & overall != "" & as.numeric(overall) < 225) |> # remove extra rows and players after pick 224
    type_convert() |> # fix types 
    mutate("year" = year, "ps" = pmax(coalesce(ps, 0), 0), 
           "gp" = coalesce(gp, 0), "to" = coalesce(to, year)) |> 
    select(year, overall, to, pos, gp, ps) # columns we care about
  draft_year_table
}

tidy_draft(1996)

# A tibble: 224 × 6
    year overall    to pos      gp    ps
   <dbl>   <dbl> <dbl> <chr> <dbl> <dbl>
 1  1996       1  2015 D      1179  64.6
 2  1996       2  2008 D       496  25.8
 3  1996       3  2011 RW      822  56.6
 4  1996       4  2000 C         3   0  
 5  1996       5  2007 D       231   8.8
 6  1996       6  2009 C       627  12.5
 7  1996       7  2007 LW/C    545   9.2
 8  1996       8  2004 D        44   0  
 9  1996       9  2011 D       917  46.9
10  1996      10  2004 D       209   2.7
# ℹ 214 more rows
…
