Stat468 Final Project - 6 Transform
…
This will result in older drafts receiving more weight when we take the average, which is unideal because we’d like all drafts to be equally weighted to prevent outliers from receiving more weight than they should. To adjust this, we will change our metric slightly, and will instead use \(p_{ij} = \frac{ps_{ij}}{\sum_i ps_{ij}}\), where \(ps_{ij}\) is the points share of the player picked at selection \(i\) in year \(j\). In other words, we define \(p_{ij}\) to be the percentage of the total points share generated by players drafted in year \(j\) that the player selected at pick \(i\) generated.

The other transformation we will apply to our dataset before the modelling step addresses one of points we mentioned at the very end of the EDA we performed in the Visualize chapter. Specifically, we will apply a weighted \(k\)-nearest neighbour algorithm so that the value of pick \(n\) will be more directly influenced by the historical outcomes of picks “close” to pick \(n\). Note that I learned how to inplemment a weighted \(k\)-nearest neighbour algorithm in STAT341.

6.3 Code

Code

all_data_prop <- all_data |> 
  group_by(year) |> 
  mutate(prop_ps = ps/sum(ps)) 

all_data_prop

# A tibble: 5,427 × 7
# Groups:   year [25]
    year overall    to pos      gp    ps prop_ps
   <int>   <int> <int> <chr> <int> <dbl>   <dbl>
 1  1996       1  2015 D      1179  64.6 0.0407 
 2  1996       2  2008 D       496  25.8 0.0163 
 3  1996       3  2011 RW      822  56.6 0.0357 
 4  1996       4  2000 C         3   0   0      
 5  1996       5  2007 D       231   8.8 0.00555
 6  1996       6  2009 C       627  12.5 0.00788
 7  1996       7  2007 LW/C    545   9.2 0.00580
 8  1996       8  2004 D        44   0   0      
 9  1996       9  2011 D       917  46.9 0.0296 
10  1996      10  2004 D       209   2.7 0.00170
# ℹ 5,417 more rows
…
In case this approach is not appropriate, we will still fit a model using the raw ps values in the Model step, it turns out the models will be quite similar.

Code

all_data_prop <- all_data_prop |> 
  group_by(overall) |>  
  summarize(avg_prop_ps = mean(prop_ps),
            .groups = "drop")

all_data_prop

# A tibble: 224 × 2
   overall avg_prop_ps
     <int>       <dbl>
 1       1      0.0544
 2       2      0.0427
 3       3      0.0332
 4       4      0.0312
 5       5      0.0247
 6       6      0.0199
 7       7      0.0228
 8       8      0.0135
 9       9      0.0185
10      10      0.0119
# ℹ 214 more rows
…
